[gd_scene load_steps=3 format=2]

[ext_resource path="res://views/starmap/starmap.gd" type="Script" id=1]
[ext_resource path="res://tilesets/space.tres" type="TileSet" id=2]

[node name="starmap" type="Node2D" index="0"]

script = ExtResource( 1 )

[node name="stars" type="TileMap" parent="." index="0"]

visible = false
mode = 0
tile_set = ExtResource( 2 )
cell_size = Vector2( 32, 32 )
cell_quadrant_size = 16
cell_custom_transform = Transform2D( 1, 0, 0, 1, 0, 0 )
cell_half_offset = 2
cell_tile_origin = 0
cell_y_sort = false
cell_clip_uv = false
collision_use_kinematic = false
collision_friction = 1.0
collision_bounce = 0.0
collision_layer = 1
collision_mask = 1
occluder_light_mask = 1
format = 1
tile_data = PoolIntArray( 65553, 0, 0, 196616, 0, 0, 262172, 2, 0, 393220, 0, 0, 393231, 1, 0, 393241, 1, 0, 458780, 0, 0, 524300, 2, 0, 524319, 1, 0, 655367, 0, 0, 720900, 1, 0, 720913, 2, 0, 786451, 2, 0, 851993, 1, 0, 917522, 0, 0, 917533, 2, 0, 1048586, 1, 0, 1179655, 0, 0, 1179671, 0, 0 )
_sections_unfolded = [ "Cell" ]


